{
  "extends": ["@1stg/tslint-config/angular", "@1stg/tslint-config/eslint"],
  "rules": {
    "directive-selector": [true, "attribute", "alo", "camelCase"],
    "component-selector": [true, ["element", "attribute"], "alo", "kebab-case"],
    "ordered-imports": [
      true,
      {
        "import-sources-order": "case-insensitive",
        "named-imports-order": "case-insensitive",
        "grouped-imports": true,
        "groups": ["^@", "^(?!app|asm|\\.+)"]
      }
    ],
    "camelCase": "off"
  },
  "linterOptions": {
    "exclude": ["node_modules/**", "dist/**"]
  }
}
