<svg xmlns="http://www.w3.org/2000/svg" width="160" height="160" viewBox="0 0 160 160">
  <g fill="none" fill-rule="evenodd">
    <rect width="160" height="160"/>
    <g transform="translate(0 10)">
      <g opacity=".1" transform="translate(0 2)">
        <g transform="translate(0 19.333)">
          <path fill="#009CE3" fill-rule="nonzero" d="M1.87079329 62.7407292C4.39818408 73.5432866 9.74850731 82.8812385 18.2042018 87.4075391 35.776556 96.8139169 75.4068005 91.9629572 104.984261 86.3884299 119.929804 83.581177 133.495755 75.8259082 143.497853 64.3713039L1.87079329 62.7407292zM156.971932 11.895916L140.743346 11.895916C139.968639 11.895916 139.340615 11.2678919 139.340615 10.493185 139.340615 9.71847801 139.968639 9.09045395 140.743346 9.09045395L143.548808 9.09045395C142.774101 9.09045395 142.146077 8.46242989 142.146077 7.68772295 142.146077 6.91301601 142.774101 6.28499195 143.548808 6.28499195L141.545531 6.28499195C140.770824 6.28499195 140.1428 5.65696788 140.1428 4.88226094 140.1428 4.107554 140.770824 3.47952994 141.545531 3.47952994L150.015784 3.47952994C148.136256 2.60600778 145.939347 1.98435117 143.409045 1.65823623 120.313119-1.30882737 112.06707.65368575 109.158241 2.67734542 105.569521 5.16688358 101.565877 6.99836838 97.2870748 7.88062576 83.0370166 10.8200278 56.3873113 14.3577926 32.2329677 6.74795869 20.2278615 2.96269599 11.3048326 9.35687821 5.95742114 20.0371425L159.789041 20.0371425C159.588131 16.9332271 158.986857 14.0680744 157.883307 11.5581541 157.629841 11.7763761 157.306396 11.8962473 156.971932 11.895916zM.493540021 40.1965781C-.129849447 46.4788724.0816350126 52.816063 1.12247598 59.0428187L143.605587 64.2533784C147.571868 59.6908303 150.902093 54.6122363 153.505505 49.1560037L.493540021 40.1965781zM56.8473663 53.64154L54.0419043 53.64154C54.8166113 53.64154 55.4446353 54.2695641 55.4446353 55.044271 55.4446353 55.818978 54.8166113 56.447002 54.0419043 56.447002L37.8133185 56.447002C37.0386115 56.447002 36.4105875 55.818978 36.4105875 55.044271 36.4105875 54.2695641 37.0386115 53.64154 37.8133185 53.64154L40.6187805 53.64154C39.8440735 53.64154 39.2160495 53.013516 39.2160495 52.238809 39.2160495 51.4641021 39.8440735 50.836078 40.6187805 50.836078L38.615503 50.836078C37.840796 50.836078 37.212772 50.2080539 37.212772 49.433347 37.212772 48.6586401 37.840796 48.030616 38.615503 48.030616L54.8440889 48.030616C55.6187958 48.030616 56.2468199 48.6586401 56.2468199 49.433347 56.2468199 50.2080539 55.6187958 50.836078 54.8440889 50.836078L56.8473663 50.836078C57.6220733 50.836078 58.2500973 51.4641021 58.2500973 52.238809 58.2500973 53.013516 57.6220733 53.64154 56.8473663 53.64154zM159.796321 20.1332299L4.23803835 23.9184926C2.34686287 28.7810993 1.09918205 34.2799213.516833945 39.9811093L157.070931 39.9811093C158.093101 36.6329436 158.849109 33.2092433 159.331898 29.7419737 159.797776 26.3905603 159.984128 23.151249 159.796321 20.1332299zM32.0975718 32.5314211L29.2921098 32.5314211C30.0668167 32.5314211 30.6948408 33.1594452 30.6948408 33.9341521 30.6948408 34.7088591 30.0668167 35.3368831 29.2921098 35.3368831L13.0635239 35.3368831C12.288817 35.3368831 11.6607929 34.7088591 11.6607929 33.9341521 11.6607929 33.1594452 12.288817 32.5314211 13.0635239 32.5314211L15.8689859 32.5314211C15.094279 32.5314211 14.4662549 31.9033971 14.4662549 31.1286901 14.4662549 30.3539832 15.094279 29.7259591 15.8689859 29.7259591L13.8657084 29.7259591C13.0910015 29.7259591 12.4629774 29.0979351 12.4629774 28.3232281 12.4629774 27.5485212 13.0910015 26.9204971 13.8657084 26.9204971L30.0942943 26.9204971C30.8690012 26.9204971 31.4970253 27.5485212 31.4970253 28.3232281 31.4970253 29.0979351 30.8690012 29.7259591 30.0942943 29.7259591L32.0975718 29.7259591C32.8722787 29.7259591 33.5003028 30.3539832 33.5003028 31.1286901 33.5003028 31.9033971 32.8722787 32.5314211 32.0975718 32.5314211z"/>
          <g fill="#009CE3" fill-rule="nonzero" transform="translate(97.689 64.15)">
            <path d="M17.9698067 15.8146382C16.7133907 15.5540374 13.5410494 12.5200038 13.5410494 12.5200038 13.5410494 12.5200038 17.6582505 11.0015311 18.9161224 11.2621318 20.0972402 11.5913199 20.820962 12.7797622 20.5713468 13.980219 20.3217317 15.1806757 19.1842478 15.9821111 17.9698067 15.8131823L17.9698067 15.8146382zM10.5448683 21.6206488C9.26224664 21.5755168 5.62257097 19.1223754 5.62257097 19.1223754 5.62257097 19.1223754 9.42530411 16.9342024 10.7079258 16.9749668 11.5766201 16.9478224 12.3881796 17.4065487 12.8129347 18.164803 13.2376899 18.9230572 13.2049898 19.8547167 12.7281179 20.581325 12.251246 21.3079333 11.4095218 21.7086314 10.5448683 21.6206488zM16.2052919 2.95784784C16.3698053 4.23173433 19.1490616 7.62682379 19.1490616 7.62682379 19.1490616 7.62682379 20.9790906 3.63773926 20.8160331 2.36385277 20.5800536 1.15930091 19.4498499.344549095 18.2324615.501383469 17.0150732.658217843 16.1282719 1.73281746 16.2052919 2.95784784zM7.60692215 9.85721704C8.14413828 11.0219133 11.8129314 13.4313785 11.8129314 13.4313785 11.8129314 13.4313785 12.3661621 9.07687058 11.8289459 7.91217436 11.5170063 7.10210494 10.7805085 6.53268645 9.91799775 6.43473721 9.05548702 6.33678798 8.21006089 6.72655858 7.7244196 7.44605238 7.2387783 8.16554618 7.19349365 9.09539335 7.60692215 9.85867291L7.60692215 9.85721704zM.170336821 17.7101813C.502275242 18.9505827 3.71246918 21.943852 3.71246918 21.943852 3.71246918 21.943852 4.99363502 17.746578 4.66024073 16.5061766 4.26471079 15.3451656 3.03664176 14.6897681 1.85196101 15.00745.667280249 15.3251319-.0680989788 16.5070443.170336821 17.7101813z"/>
            <path d="M17.9698067 15.8146382C16.7133907 15.5540374 13.5410494 12.5200038 13.5410494 12.5200038 13.5410494 12.5200038 17.6582505 11.0015311 18.9161224 11.2621318 20.0972402 11.5913199 20.820962 12.7797622 20.5713468 13.980219 20.3217317 15.1806757 19.1842478 15.9821111 17.9698067 15.8131823L17.9698067 15.8146382zM10.5448683 21.6206488C9.26224664 21.5755168 5.62257097 19.1223754 5.62257097 19.1223754 5.62257097 19.1223754 9.42530411 16.9342024 10.7079258 16.9749668 11.5766201 16.9478224 12.3881796 17.4065487 12.8129347 18.164803 13.2376899 18.9230572 13.2049898 19.8547167 12.7281179 20.581325 12.251246 21.3079333 11.4095218 21.7086314 10.5448683 21.6206488zM7.60692215 9.85721704C8.14413828 11.0219133 11.8129314 13.4313785 11.8129314 13.4313785 11.8129314 13.4313785 12.3661621 9.07687058 11.8289459 7.91217436 11.5170063 7.10210494 10.7805085 6.53268645 9.91799775 6.43473721 9.05548702 6.33678798 8.21006089 6.72655858 7.7244196 7.44605238 7.2387783 8.16554618 7.19349365 9.09539335 7.60692215 9.85867291L7.60692215 9.85721704zM.170336821 17.7101813C.502275242 18.9505827 3.71246918 21.943852 3.71246918 21.943852 3.71246918 21.943852 4.99363502 17.746578 4.66024073 16.5061766 4.26471079 15.3451656 3.03664176 14.6897681 1.85196101 15.00745.667280249 15.3251319-.0680989788 16.5070443.170336821 17.7101813z" opacity=".25"/>
          </g>
          <g transform="translate(91.574 44.083)">
            <path stroke="#535461" stroke-width="1.333" d="M4.30209664,32.0099829 C4.30209664,32.0099829 4.82038646,21.1026028 10.8083809,15.018521 C13.3337965,12.4818179 14.9684877,9.19455597 15.4671657,5.6499958 C15.6916786,3.96527717 15.7613664,2.26353164 15.6753552,0.566096823"/>
            <path fill="#009CE3" fill-rule="nonzero" d="M20.7359602 4.68184207C19.716851 5.47092375 15.3579755 5.92806702 15.3579755 5.92806702 15.3579755 5.92806702 16.8648012 1.80504242 17.876631 1.01596074 18.5253198.439173035 19.440912.270920895 20.252281.579403725 21.0636499.887886555 21.63619 1.62192723 21.7378275 2.48398932 21.839465 3.34605141 21.4533383 4.19311931 20.7359602 4.68184207zM16.5940093 16.1133354C15.3215787 16.2836722 11.3237589 14.4740255 11.3237589 14.4740255 11.3237589 14.4740255 14.7057456 11.6758428 15.9825438 11.505506 16.8338706 11.3346891 17.7095432 11.6515546 18.2544308 12.3275969 18.7993184 13.0036393 18.9229675 13.9266329 18.5752319 14.7222558 18.2274963 15.5178786 17.4661015 16.0540542 16.5998328 16.1133354L16.5940093 16.1133354zM11.5144779 24.052196C10.2886352 24.4350899 6.04186161 23.3242608 6.04186161 23.3242608 6.04186161 23.3242608 8.90119082 19.9946855 10.1270336 19.6117917 11.3209239 19.3204616 12.535766 20.0067263 12.9024977 21.1796521 13.2692294 22.3525779 12.6616825 23.6086381 11.5144779 24.0492842L11.5144779 24.052196zM10.6657056 4.56828419C11.2480537 5.71550996 14.992552 7.99685867 14.992552 7.99685867 14.992552 7.99685867 15.3958281 3.62924787 14.8193035 2.47911035 14.1984873 1.41827097 12.8602439 1.0223497 11.7621765 1.57465488 10.6641091 2.12696005 10.184134 3.43740766 10.6657056 4.56828419zM4.84222451 13.92953C5.73612885 14.8510959 9.99600526 15.9066018 9.99600526 15.9066018 9.99600526 15.9066018 9.07443938 11.6161522 8.18053503 10.6945863 7.27083492 9.86723374 5.87472078 9.88948398 4.99184744 10.7454052 4.10897411 11.6013265 4.04346418 12.9960803 4.84222451 13.9309859L4.84222451 13.92953zM.430937599 23.8032422C1.15887273 24.8631157 5.17707467 26.6232629 5.17707467 26.6232629 5.17707467 26.6232629 4.99363502 22.2381816 4.26861162 21.1783081 3.50784911 20.22558 2.14113864 20.0206549 1.13440828 20.7083644.127677931 21.396074-.178444837 22.7437314.43239347 23.7988746L.430937599 23.8032422z"/>
          </g>
          <g fill="#009CE3" fill-rule="nonzero" transform="translate(32.657 103.113)">
            <path d="M0.1077344,7.6895071 C7.53605916,10.1870263 16.5985398,8.66811143 25.0262501,8.84380681 C26.1805498,8.86836637 27.4009714,8.94015588 28.3266782,9.37089292 C29.252385,9.80162996 29.7076816,10.5044115 30.342452,11.0995087 C32.7039489,13.3268726 37.5421838,14.0428785 41.7720971,13.665039 C46.0020105,13.2871994 49.880533,12.0365507 53.8629615,11.0843951 C60.7623109,9.43701484 68.6497107,8.68889261 75.4546002,10.4836303 C76.0799246,10.6479905 76.7373654,10.8369102 77.4061413,10.7726775 C78.8986074,10.6253201 79.3425688,9.43134724 80.3854059,8.74934693 C82.2746034,7.51759013 86.3609377,7.85197809 87.186517,6.2291574 C87.6720408,5.28455862 86.555525,4.3021759 85.340771,3.65229194 C80.6895667,1.16610797 74.0358129,0.756152099 67.9488184,1.1396592 C61.8618239,1.5231663 55.876846,2.58111693 49.7577352,2.58489533 C42.1348231,2.58489533 34.7688418,0.962074632 27.2196084,0.297077095 C21.9903096,-0.163887107 16.2830438,-0.107211181 11.3805762,1.24167587 C6.08137705,2.71902835 4.91007457,6.01378888 0.1077344,7.6895071 Z"/>
          </g>
        </g>
        <path fill="#009CE3" fill-rule="nonzero" d="M36.6686931,18.6721667 L38.5767322,18.6721667 C37.8562294,18.6480594 37.2846124,18.0569968 37.2846124,17.3360908 C37.2846124,16.6151848 37.8562294,16.0241222 38.5767322,16.0000148 L54.0324468,16.0000148 C54.7529496,16.0241222 55.3245667,16.6151848 55.3245667,17.3360908 C55.3245667,18.0569968 54.7529496,18.6480594 54.0324468,18.6721667 L52.1244078,18.6721667 C52.8618892,18.6721667 53.4597361,19.2700136 53.4597361,20.007495 C53.4597361,20.7449765 52.8618892,21.3428233 52.1244078,21.3428233 L54.7950644,21.3428233 C55.5155671,21.3669307 56.0871842,21.9579933 56.0871842,22.6788993 C56.0871842,23.3998053 55.5155671,23.9908679 54.7950644,24.0149752 L39.3393497,24.0149752 C38.6188469,23.9908679 38.0472299,23.3998053 38.0472299,22.6788993 C38.0472299,21.9579933 38.6188469,21.3669307 39.3393497,21.3428233 L36.6686931,21.3428233 C35.9312116,21.3428233 35.3333648,20.7449765 35.3333648,20.007495 C35.3333648,19.2700136 35.9312116,18.6721667 36.6686931,18.6721667 Z"/>
        <g fill="#009CE3" fill-rule="nonzero" transform="translate(64 18.667)">
          <circle cx="17.557" cy="5.445" r="2.467"/>
          <circle cx="1.346" cy="1.346" r="1.346"/>
        </g>
        <g fill="#009CE3" fill-rule="nonzero" transform="rotate(-11 97.385 -547.684)">
          <circle cx="2.467" cy="2.467" r="2.467"/>
          <circle cx="42.627" cy="16.36" r="1.346"/>
        </g>
        <g fill="#009CE3" fill-rule="nonzero" transform="rotate(80 28.088 134.167)">
          <circle cx="2.589" cy="2.579" r="2.467"/>
          <circle cx="19.961" cy="17.026" r="1.346"/>
        </g>
        <g fill="#009CE3" fill-rule="nonzero" transform="translate(7.071 109.805)">
          <circle cx="6.286" cy="1.446" r="1.346"/>
          <circle cx="11.445" cy="7.506" r="1.346"/>
          <circle cx="1.352" cy="11.159" r="1.346"/>
        </g>
        <ellipse cx="26.981" cy="136.641" fill="#009CE3" fill-rule="nonzero" rx="6.667" ry="1.346"/>
        <ellipse cx="107.647" cy="136.641" fill="#009CE3" fill-rule="nonzero" rx="6.667" ry="1.346"/>
      </g>
      <path fill="#000" fill-rule="nonzero" d="M42.1200691,80.7731065 C42.1200691,80.7731065 40.1535428,84.9631412 41.3622555,84.6793383 C42.5709682,84.3955354 42.1200691,80.7731065 42.1200691,80.7731065 Z" opacity=".1"/>
      <g fill-rule="nonzero" transform="translate(24.667 58.667)">
        <polygon fill="#A8A7A7" points="14.272 17.81 49.82 11.608 49.82 47.69 15.411 45.794 13.605 17.81"/>
        <polygon fill="#000" points="50.215 11.333 50.215 47.415 15.806 45.52 14 17.535" opacity=".05"/>
        <polygon fill="#B0ADAD" points="49.854 11.608 93.283 15.028 90.88 46.428 49.854 47.69"/>
        <polygon fill="#000" points="50 11.333 93.43 14.753 91.026 46.153 50 47.415" opacity=".1"/>
        <polygon fill="#C9C7C7" points="63.206 .649 49.854 11.662 93.283 15.082 100.381 3.812"/>
        <polygon fill="#C9C7C7" points=".623 5.838 33.226 1.661 49.951 11.664 13.736 17.865"/>
        <polygon fill="#E0E0E0" points="57.759 20.845 57.759 70.177 40.795 68.346 33.415 67.554 31.167 67.306 23.792 66.509 13.605 65.411 13.605 17.678 49.815 20.271"/>
        <polygon fill="#CCC" points="93.269 14.98 93.269 63.089 79.672 65.836 73.059 67.172 57.778 70.261 57.778 20.929"/>
        <polygon fill="#CCC" points="92.824 16 92.824 64.109 79.227 66.856 72.614 68.193 57.333 71.281 57.333 21.949" opacity=".05"/>
        <polygon fill="#C8C6C6" points=".623 28.062 13.736 17.678 57.89 20.845 51.39 32.368"/>
        <polygon fill="#E0E0E0" points=".667 27.717 13.779 17.333 57.933 20.501 51.433 32.023" opacity=".1"/>
        <polygon fill="#BABABA" points="93.269 14.98 57.778 20.929 69.329 31.818 107.345 25.107"/>
        <polygon fill="#FFF" points="93.491 15.333 58 21.283 69.551 32.172 107.567 25.46" opacity=".1"/>
        <polygon fill="#9B9898" points="79.565 66.031 72.952 67.367 72.952 57.087 79.146 55.444" opacity=".252"/>
        <polygon fill="#FFF" points="40.711 61.682 40.711 68.482 33.331 67.69 33.331 61.682" opacity=".1"/>
        <polygon fill="#FFF" points="31.264 63.874 31.264 67.492 23.89 66.695 23.89 63.874" opacity=".1"/>
      </g>
      <path fill="#006EFF" fill-rule="nonzero" d="M73.7190044,34.6749651 C73.7190044,34.6749651 67.3122604,34.2888745 68.0608379,38.7837112 C68.0608379,38.7837112 67.9107852,39.5778102 68.6307009,39.9386111 C68.6307009,39.9386111 68.6425028,39.601414 69.2882351,39.717747 C69.5181927,39.7564484 69.7519259,39.7677672 69.984547,39.7514667 C70.2997939,39.7304415 70.59946,39.6066663 70.8376556,39.3990958 C70.8376556,39.3990958 72.6399738,38.6555763 73.3413437,35.7084741 C73.3413437,35.7084741 73.8606271,35.0644277 73.8471392,34.8992012 L72.7647367,35.3628471 C72.7647367,35.3628471 73.1339675,36.1434583 72.842292,36.7925626 C72.842292,36.7925626 72.8085723,35.3915089 72.5995102,35.4235426 C72.5573605,35.4235426 72.0380771,35.6949862 72.0380771,35.6949862 C72.0380771,35.6949862 72.6736935,37.0538903 72.1931877,38.0435637 C72.1931877,38.0435637 72.3752741,36.3676943 71.8391308,35.7927734 L71.0770655,36.2378735 C71.0770655,36.2378735 71.820585,37.6422992 71.3164754,38.7887691 C71.3164754,38.7887691 71.4462962,37.0302865 70.9168969,36.3457765 L70.2256429,36.8836058 C70.2256429,36.8836058 70.9253268,38.2694857 70.4987725,39.2203814 C70.4987725,39.2203814 70.443135,37.1735953 70.0755902,37.0184846 C70.0755902,37.0184846 69.4720075,37.551256 69.3809643,37.7704341 C69.3809643,37.7704341 69.8580981,38.7820252 69.5613647,39.3063666 C69.5613647,39.3063666 69.3792783,37.9424045 69.2241677,37.9356606 C69.2241677,37.9356606 68.622271,38.8393487 68.5598895,39.4530473 C68.58904,38.8809101 68.7674902,38.3263775 69.077487,37.8446174 C68.7305912,37.9102489 68.4105453,38.0761335 68.156939,38.3217512 C68.156939,38.3217512 68.2496682,37.6827628 69.2258537,37.6271253 C69.2258537,37.6271253 69.7316492,36.9409293 69.8564122,36.8987797 C69.8564122,36.8987797 68.8852847,36.8178524 68.2968758,37.0791801 C68.2968758,37.0791801 68.8144733,36.4772834 70.0351266,36.7419831 L70.7095207,36.1856079 C70.7095207,36.1856079 69.4315439,36.0170094 68.8886566,36.2041538 C68.8886566,36.2041538 69.5124712,35.6713824 70.8932931,36.059159 L71.6351266,35.6157449 C71.6351266,35.6157449 70.5459801,35.379707 69.8968758,35.4656922 C69.8968758,35.4656922 70.5813858,35.0964615 71.8526187,35.49604 L72.383704,35.258316 C72.383704,35.258316 71.584547,35.1015194 71.3518811,35.0762296 C71.1192151,35.0509398 71.1057272,34.9868724 71.1057272,34.9868724 C71.6113016,34.9027267 72.1303219,34.9611092 72.6045681,35.1554709 C72.6045681,35.1554709 73.7426082,34.7457765 73.7190044,34.6749651 Z"/>
      <path fill="#009CE3" fill-rule="nonzero" d="M109.719004 46.0082985C109.719004 46.0082985 103.31226 45.6222079 104.060838 50.1170445 104.060838 50.1170445 103.910785 50.9111436 104.630701 51.2719444 104.630701 51.2719444 104.642503 50.9347474 105.289921 51.0510803 105.519879 51.0897817 105.753612 51.1011005 105.986233 51.0848001 106.297777 51.0622123 106.593583 50.939157 106.829226 50.7341151 106.829226 50.7341151 108.63323 49.9889096 109.3346 47.0418074 109.3346 47.0418074 109.852197 46.399447 109.831965 46.2342205L108.749563 46.6961805C108.749563 46.6961805 109.118794 47.4767916 108.828804 48.1258959 108.828804 48.1258959 108.793398 46.7248422 108.586022 46.7568759 108.543873 46.7568759 108.022903 47.0283195 108.022903 47.0283195 108.022903 47.0283195 108.660206 48.3889096 108.1797 49.376897 108.1797 49.376897 108.361786 47.7010277 107.823957 47.1261067L107.070322 47.5661488C107.070322 47.5661488 107.813841 48.9705746 107.309731 50.1170445 107.309731 50.1170445 107.439552 48.3585619 106.910153 47.6740519L106.220585 48.2135672C106.220585 48.2135672 106.918583 49.5977611 106.493715 50.5486567 106.493715 50.5486567 106.438077 48.5018707 106.070532 48.34676 106.070532 48.34676 105.46695 48.8795313 105.37422 49.0987094 105.37422 49.0987094 105.85304 50.1103006 105.556307 50.634642 105.556307 50.634642 105.37422 49.2706799 105.21911 49.263936 105.21911 49.263936 104.617213 50.1676241 104.554832 50.7813227 104.584954 50.2091156 104.763951 49.6546881 105.074115 49.1728928 104.726781 49.2386844 104.406238 49.4045232 104.151881 49.6500266 104.151881 49.6500266 104.246296 49.0110382 105.222482 48.9554007 105.222482 48.9554007 105.719847 48.2692047 105.85304 48.2270551 105.85304 48.2270551 104.881913 48.1461278 104.293504 48.4074555 104.293504 48.4074555 104.811101 47.8055587 106.030069 48.0786884L106.704463 47.5223132C106.704463 47.5223132 105.4248 47.3537147 104.883599 47.5408591 104.883599 47.5408591 105.507413 47.0080877 106.888235 47.3958643L107.630069 46.9524502C107.630069 46.9524502 106.539236 46.7180983 105.890132 46.8023975 105.890132 46.8023975 106.576328 46.4331668 107.847561 46.8327453L108.378646 46.5950213C108.378646 46.5950213 107.579489 46.4382247 107.345137 46.4129349 107.110785 46.3876452 107.098983 46.3235777 107.098983 46.3235777 107.605112 46.2393816 108.124687 46.2977608 108.59951 46.4921762 108.59951 46.4921762 109.739236 46.0791099 109.719004 46.0082985zM38.8578706 35.6196067C38.8578706 35.6196067 33.7122436 31.7705024 31.8728337 35.9399439 31.8728337 35.9399439 31.3114006 36.5216088 31.7143511 37.2179207 31.7143511 37.2179207 31.9065534 36.9464771 32.3887452 37.3966352 32.5595389 37.5555288 32.7485638 37.6936189 32.9518643 37.8080156 33.2272302 37.9613448 33.5451386 38.0205456 33.8572383 37.9766141 33.8572383 37.9766141 35.7725176 38.3458448 37.9777863 36.270397 37.9777863 36.270397 38.7651414 36.0174992 38.8393247 35.8691325L37.6776809 35.6651283C37.6776809 35.6651283 37.55629 36.5199228 36.9577652 36.9026415 36.9577652 36.9026415 37.6979127 35.7123359 37.5057104 35.6263506 37.4669327 35.6078048 36.8869538 35.5420514 36.8869538 35.5420514 36.8869538 35.5420514 36.6711477 37.0290904 35.726996 37.5905235 35.726996 37.5905235 36.8009686 36.2906288 36.6677757 35.5150756L35.7860055 35.467868C35.7860055 35.467868 35.6359528 37.0510082 34.583898 37.7321462 34.583898 37.7321462 35.6578706 36.3344644 35.5954891 35.47124L34.7221488 35.5420514C34.7221488 35.5420514 34.5451203 37.0813559 33.666722 37.641103 33.666722 37.641103 34.7440666 35.9011662 34.5232025 35.5707131 34.5232025 35.5707131 33.7257315 35.6836741 33.5284712 35.815181 33.5284712 35.815181 33.3750466 36.9178153 32.8355313 37.1976889 32.8355313 37.1976889 33.434056 35.9584897 33.3126651 35.8725045 33.3126651 35.8725045 32.3128758 36.2956868 31.9200413 36.7778786 32.2598602 36.3161931 32.7143264 35.9512253 33.2384817 35.7190798 32.9123533 35.5835324 32.5537744 35.546034 32.2066588 35.6111768 32.2066588 35.6111768 32.634899 35.128985 33.4812636 35.6196067 33.4812636 35.6196067 34.2736767 35.3211873 34.4085555 35.358279 34.4085555 35.358279 33.6414322 34.7563823 33.0058158 34.6518512 33.0058158 34.6518512 33.7712531 34.4326731 34.6395355 35.3262453L35.5145618 35.2368881C35.5145618 35.2368881 34.5417483 34.3938954 33.9836872 34.2522727 33.9836872 34.2522727 34.7980181 34.1494276 35.7371119 35.2318301L36.6003363 35.2706078C36.6003363 35.2706078 35.8197252 34.4748227 35.2313163 34.1882052 35.2313163 34.1882052 36.0051835 34.2556446 36.8481762 35.2891536L37.4230971 35.3818828C37.4230971 35.3818828 36.8414322 34.8120198 36.6593458 34.6636531 36.4772594 34.5152864 36.5025492 34.4529049 36.5025492 34.4529049 36.9715881 34.6606071 37.3737412 34.99447 37.664193 35.4172885 37.664193 35.4172885 38.8359528 35.6887321 38.8578706 35.6196067zM87.2952582 14.0776958C87.2952582 14.0776958 82.1496312 10.2269055 80.3102213 14.398033 80.3102213 14.398033 79.7487882 14.9796979 80.1517387 15.6760098 80.1517387 15.6760098 80.343941 15.4045662 80.8261328 15.8547243 80.9978212 16.0127972 81.1873718 16.1502922 81.3909378 16.2644187 81.6662613 16.4178657 81.9842094 16.4770739 82.2963119 16.4330172 82.2963119 16.4330172 84.2115911 16.802248 86.4168599 14.7251142 86.4168599 14.7251142 87.204215 14.4739024 87.2767123 14.3238497L86.1150685 14.1232174C86.1150685 14.1232174 85.9953635 14.9780119 85.3951528 15.3607306 85.3951528 15.3607306 86.1369863 14.170425 85.944784 14.0844398 85.9060063 14.0658939 85.3260274 14.0001405 85.3260274 14.0001405 85.3260274 14.0001405 85.1034773 15.4905515 84.1593256 16.0486126 84.1593256 16.0486126 85.2316122 14.7487179 85.1001054 13.9731647L84.2183351 13.9259571C84.2183351 13.9259571 84.0665964 15.5090973 83.0162276 16.1885494 83.0162276 16.1885494 84.0902002 14.7908676 84.0278188 13.9276431L83.1561644 13.9984545C83.1561644 13.9984545 82.9774499 15.539445 82.0990516 16.0991921 82.0990516 16.0991921 83.1780822 14.3592554 82.9572181 14.0288022 82.9572181 14.0288022 82.1597471 14.1417633 81.9624868 14.2732701 81.9624868 14.2732701 81.8090622 15.3759045 81.2695469 15.655778 81.2695469 15.655778 81.8680717 14.4165789 81.7466807 14.3289076 81.7466807 14.3289076 80.7468915 14.7537759 80.3540569 15.2359677 80.6933622 14.7737901 81.1479724 14.4087067 81.6724974 14.1771689 81.346034 14.0406135 80.986618 14.0030888 80.6389884 14.0692659 80.6389884 14.0692659 81.0689146 13.5870741 81.9152792 14.0776958 81.9152792 14.0776958 82.7076923 13.7775904 82.8425711 13.8163681 82.8425711 13.8163681 82.0754478 13.2144714 81.4398314 13.1082543 81.4398314 13.1082543 82.2035827 12.8907622 83.0718651 13.7826484L83.9468915 13.6932912C83.9468915 13.6932912 82.975764 12.8502986 82.4160169 12.7069898 82.4160169 12.7069898 83.2303477 12.6058307 84.1711275 13.6882332L85.0343519 13.7253249C85.0343519 13.7253249 84.2537408 12.9295399 83.6636459 12.6446084 83.6636459 12.6446084 84.4391992 12.7120478 85.2821918 13.7455567L85.8554268 13.8382859C85.8554268 13.8382859 85.2720759 13.2751668 85.0899895 13.1301721 84.9079031 12.9851774 84.9331928 12.9211099 84.9331928 12.9211099 85.4023731 13.128584 85.804583 13.4624941 86.0948367 13.8854935 86.0948367 13.8854935 87.2665964 14.1417633 87.2952582 14.0776958zM26.1244819 18.252734C26.1244819 18.252734 24.0675799 12.1646412 20.1881279 14.5570543 20.1881279 14.5570543 19.3957148 14.7256528 19.3333333 15.5197519 19.3333333 15.5197519 19.6452406 15.4051049 19.7834914 16.0457793 19.834855 16.2736772 19.9123616 16.4948822 20.0144714 16.7049995 20.1538159 16.9877755 20.38094 17.2178569 20.6618897 17.3608478 20.6618897 17.3608478 22.0309097 18.7517856 25.0252195 18.2915116 25.0252195 18.2915116 25.8159466 18.5309215 25.9609413 18.4483083L25.1179487 17.6204895C25.1179487 17.6204895 24.5345978 18.2561059 23.823112 18.2308162 23.823112 18.2308162 25.1095188 17.6710691 25.0033017 17.4906686 24.9813839 17.455263 24.5413418 17.0725443 24.5413418 17.0725443 24.5413418 17.0725443 23.5196347 18.1734927 22.4237443 18.1009953 22.4237443 18.1009953 24.0439761 17.6390353 24.3744292 16.9208056L23.6764313 16.3829763C23.6764313 16.3829763 22.6547243 17.6002577 21.4020372 17.563166 21.4020372 17.563166 23.0880225 17.0219647 23.5145767 16.2733873L22.7558834 15.8367171C22.7558834 15.8367171 21.7442922 17.0051049 20.6956094 16.9680132 20.6956094 16.9680132 22.570425 16.1469384 22.575483 15.7490459 22.575483 15.7490459 21.8555673 15.389931 21.6178433 15.3865591 21.6178433 15.3865591 20.8658939 16.2076339 20.2690551 16.1334505 20.2690551 16.1334505 21.4627327 15.4506265 21.4121531 15.3106897 21.4121531 15.3106897 20.3499824 15.0931976 19.7514577 15.2685401 20.2928038 15.080057 20.8740385 15.0364644 21.4374429 15.1420912 21.2450519 14.8451863 20.9702613 14.6108233 20.6467158 14.4676971 20.6467158 14.4676971 21.2739024 14.3142724 21.6937127 15.1977287 21.6937127 15.1977287 22.5164735 15.4017329 22.6041447 15.50795 22.6041447 15.50795 22.3141553 14.5789721 21.8505093 14.1305 21.8505093 14.1305 22.6041447 14.3850838 22.8098349 15.617539L23.5820162 16.0390353C23.5820162 16.0390353 23.2633649 14.7897203 22.8789603 14.3530501 22.8789603 14.3530501 23.6089919 14.7307108 23.7674745 16.1553683L24.4587285 16.6763378C24.4587285 16.6763378 24.2665262 15.5770754 23.942817 15.0072124 23.942817 15.0072124 24.5430277 15.502892 24.6509308 16.8331344L25.0707411 17.2343989C25.0707411 17.2343989 24.9156305 16.4352419 24.851563 16.2093199 24.7874956 15.9833978 24.8397612 15.968224 24.8397612 15.968224 25.1077832 16.405592 25.2495781 16.9085845 25.2494556 17.4215432 25.2494556 17.4215432 26.0654724 18.2965696 26.1244819 18.252734zM123.226479 28.7072702C123.226479 28.7072702 116.836595 27.9957844 117.364308 32.5293988 117.364308 32.5293988 117.173792 33.3150679 117.870104 33.7095884 117.870104 33.7095884 117.898766 33.3723914 118.544498 33.5241301 118.772702 33.5732321 119.005719 33.5964207 119.239124 33.5932554 119.554401 33.5875616 119.859228 33.4792444 120.107406 33.2847201 120.107406 33.2847201 121.946816 32.6322439 122.804983 29.7239193 122.804983 29.7239193 123.354614 29.1085347 123.342812 28.9416222L122.238492 29.3496306C122.238492 29.3496306 122.575689 30.1471016 122.238492 30.7810321 122.238492 30.7810321 122.273897 29.3799783 122.069893 29.4018961 122.027744 29.4018961 121.494972 29.644678 121.494972 29.644678 121.494972 29.644678 122.061463 31.0356158 121.532064 32.0050573 121.532064 32.0050573 121.79845 30.3393039 121.290968 29.7390932L120.506985 30.1437296C120.506985 30.1437296 121.181379 31.585247 120.616574 32.7047412 120.616574 32.7047412 120.835752 30.9546885 120.341758 30.2448887L119.625215 30.7506843C119.625215 30.7506843 120.252401 32.1685979 119.778639 33.0975758 119.778639 33.0975758 119.827533 31.0507897 119.468418 30.8771332 119.468418 30.8771332 118.83786 31.3829288 118.735014 31.591991 118.735014 31.591991 119.161569 32.620442 118.839546 33.1346675 118.839546 33.1346675 118.726585 31.7639615 118.578218 31.7504736 118.578218 31.7504736 117.930799 32.6221279 117.836384 33.2375126 117.894867 32.6669797 118.101808 32.1217253 118.436595 31.6560584 118.086737 31.7044056 117.758601 31.853825 117.492443 32.0859846 117.492443 32.0859846 117.617206 31.4537402 118.595078 31.4469962 118.595078 31.4469962 119.126163 30.787776 119.269472 30.7523703 119.269472 30.7523703 118.303402 30.6225494 117.701505 30.8535294 117.701505 30.8535294 118.249451 30.2769225 119.453244 30.6124335L120.163044 30.0914641C120.163044 30.0914641 118.880009 29.8318224 118.337122 30.0004209 118.337122 30.0004209 118.987912 29.4946253 120.346816 29.9582713L121.110568 29.5519488C121.110568 29.5519488 120.033223 29.2619593 119.380747 29.3142249 119.380747 29.3142249 120.083803 28.9770278 121.333118 29.4440458L121.876005 29.2332976C121.876005 29.2332976 121.085278 29.0360373 120.852612 28.9989456 120.619946 28.961854 120.611516 28.8977865 120.611516 28.8977865 121.121212 28.8393058 121.637141 28.9233484 122.101927 29.1405684 122.101927 29.1405684 123.238281 28.7780816 123.226479 28.7072702zM48.6613277 4.43911614C48.6613277 4.43911614 46.8876712-1.73664782 42.8986301.480422776 42.8986301.480422776 42.0994731.603499699 42 1.40265671 42 1.40265671 42.3169652 1.30318358 42.4265543 1.94891593 42.4671913 2.1808991 42.5351017 2.40726699 42.6288725 2.62331003 42.753928 2.91383555 42.9706556 3.15543343 43.2459431 3.31119201 43.2459431 3.31119201 44.5508957 4.76113932 47.5620653 4.43743015 47.5620653 4.43743015 48.3409905 4.71055976 48.4893572 4.63637641L47.6918862 3.76977999C47.6918862 3.76977999 47.0798736 4.38010665 46.3717597 4.32278316 46.3717597 4.32278316 47.6800843 3.81698758 47.5789252 3.63658716 47.5586934 3.59949548 47.137197 3.19654501 47.137197 3.19654501 47.137197 3.19654501 46.0682824 4.25197177 44.975764 4.12889485 44.975764 4.12889485 46.6162276 3.74111824 46.9770285 3.04312035L46.3026344 2.47325734C46.3026344 2.47325734 45.2269758 3.6433311 43.9776607 3.5522879 43.9776607 3.5522879 45.6771338 3.08526998 46.1458377 2.35861034L45.4073762 1.88822046C45.4073762 1.88822046 44.3367756 3.00940065 43.2982086 2.92510138 43.2982086 2.92510138 45.2084299 2.18832583 45.2320337 1.7921193 45.2320337 1.7921193 44.5272919 1.40097072 44.289568 1.38748284 44.289568 1.38748284 43.5022129 2.17315196 42.9036881 2.07199285 42.9036881 2.07199285 44.1277134 1.44312035 44.0838778 1.30149759 44.0838778 1.30149759 43.031823 1.03679791 42.4265543 1.18347862 42.9747476 1.02092074 43.555847 1.00406885 44.1125395 1.13458505 43.9342262.829515925 43.6704735.5833468 43.3538462.426471248 43.3538462.426471248 43.9877766.300022354 44.3654373 1.20202446 44.3654373 1.20202446 45.1763962 1.44143437 45.2606955 1.55270939 45.2606955 1.55270939 45.0128556.61024364 44.5694415.143225726 44.5694415.143225726 45.311275.429843218 45.4613277 1.67072836L46.2132771 2.12763036C46.2132771 2.12763036 45.9502634.863141427 45.5860906.418041322 45.5860906.418041322 46.2975764.827735737 46.3936776 2.25745123L47.0680717 2.8087684C47.0680717 2.8087684 46.9247629 1.70276208 46.6280295 1.12278316 46.6280295 1.12278316 47.2063224 1.64543858 47.25353 2.97736693L47.6547945 3.39886324C47.6547945 3.39886324 47.5367756 2.59296229 47.486196 2.3636683 47.4356164 2.1343743 47.486196 2.10234058 47.486196 2.10234058 47.7356856 2.55079929 47.8553648 3.05987357 47.831823 3.57251972 47.831823 3.57251972 48.6006322 4.47957978 48.6613277 4.43911614z" opacity=".1"/>
      <path fill="#006EFF" fill-rule="nonzero" d="M94.5560718 44.0171024C94.5560718 44.0171024 91.2802024 38.4887568 87.9807293 41.6348053 87.9807293 41.6348053 87.2388958 41.9551425 87.3434269 42.7542995 87.3434269 42.7542995 87.6249864 42.575585 87.894744 43.1741098 87.9912076 43.3868694 88.1129105 43.5872546 88.2572309 43.7709486 88.4508395 44.0195765 88.7210819 44.1973676 89.0260401 44.2767442 89.0260401 44.2767442 90.6530159 45.3524027 93.4871571 44.2767442 93.4871571 44.2767442 94.3099179 44.3458695 94.4346808 44.2362805L93.4450075 43.5989781C93.4450075 43.5989781 93.0066513 44.3424976 92.3052815 44.4655745 92.3052815 44.4655745 93.4466935 43.6512436 93.3033847 43.497819 93.273037 43.4657852 92.7638694 43.1825397 92.7638694 43.1825397 92.7638694 43.1825397 91.9933742 44.4723184 90.9092857 44.6291151 90.9092857 44.6291151 92.3996966 43.840074 92.5733531 43.0746367L91.7775681 42.7003479C91.7775681 42.7003479 91.0306766 44.1047737 89.7982214 44.3290097 89.7982214 44.3290097 91.32741 43.4506114 91.5971677 42.6295366L90.7642909 42.3597789C90.7642909 42.3597789 90.0089695 43.7085671 88.9838905 43.8940255 88.9838905 43.8940255 90.646272 42.7003479 90.5687166 42.3108854 90.5687166 42.3108854 89.7897915 42.1085671 89.5571255 42.1557747 89.5571255 42.1557747 88.9923204 43.1151003 88.3870517 43.1673659 88.3870517 43.1673659 89.4138168 42.2535619 89.3362614 42.125427 89.3362614 42.125427 88.2504869 42.1338569 87.7025417 42.4289043 88.1933942 42.1328319 88.7530671 41.9701025 89.3261455 41.9568285 89.0769401 41.7062018 88.7598936 41.5339067 88.4140275 41.4611488 88.4140275 41.4611488 88.9956924 41.1795893 89.5942172 41.9568285 89.5942172 41.9568285 90.4372098 41.9854902 90.5501708 42.0714754 90.5501708 42.0714754 90.073037 41.2284828 89.5267778 40.8811699 89.5267778 40.8811699 90.3158189 40.9722131 90.7727209 42.1355429L91.6157135 42.3884407C91.6157135 42.3884407 91.0441645 41.2318548 90.5788326 40.8912858 90.5788326 40.8912858 91.3712456 41.1087779 91.8230897 42.469368L92.6070728 42.8352268C92.6070728 42.8352268 92.1906345 41.8017178 91.7640802 41.31784 91.7640802 41.31784 92.4536482 41.6769549 92.8363668 42.9549317L93.3303605 43.261781C93.3303605 43.261781 93.0133953 42.5115176 92.9021202 42.3041414 92.7908452 42.0967652 92.8380528 42.0512436 92.8380528 42.0512436 93.1914655 42.4227012 93.4348498 42.8849561 93.5411086 43.3865439 93.5411086 43.3865439 94.5071782 44.0727399 94.5560718 44.0171024zM73.4305585 56.2723397C73.4305585 56.2723397 73.599157 49.8487359 69.1363541 50.75411 69.1363541 50.75411 68.337197 50.6310331 68 51.3627507 68 51.3627507 68.337197 51.3627507 68.2427819 52.011855 68.2118958 52.2433079 68.2085003 52.4776021 68.232666 52.7098529 68.2631444 53.024875 68.3964506 53.3211111 68.6120126 53.5528455 68.6120126 53.5528455 69.4162276 55.329874 72.3852476 55.9334567 72.3852476 55.9334567 73.0444679 56.4308223 73.2096944 56.4038466L72.7038988 55.3383039C72.7038988 55.3383039 71.9367756 55.7328244 71.2775553 55.4647528 71.2775553 55.4647528 72.6769231 55.3821395 72.6381454 55.1764493 72.6381454 55.1342997 72.348156 54.6217602 72.348156 54.6217602 72.348156 54.6217602 71.0094837 55.3045842 70.0063224 54.8561121 70.0063224 54.8561121 71.6923077 54.982561 72.2436249 54.4278719L71.773235 53.6809804C71.773235 53.6809804 70.3940991 54.4700215 69.2307692 54.0046896 69.2307692 54.0046896 70.9926238 54.0755009 71.660274 53.5241838L71.0988409 52.8497897C71.0988409 52.8497897 69.7382508 53.5949951 68.7738672 53.2004746 68.7738672 53.2004746 70.8172813 53.0773977 70.9656481 52.7047949 70.9656481 52.7047949 70.4126449 52.1197581 70.1900948 52.0304008 70.1900948 52.0304008 69.2021075 52.5361964 68.6625922 52.2630668 68.6625922 52.2630668 70.0113804 52.0371448 70.0198103 51.8870921 70.0198103 51.8870921 69.0975764 51.3155431 68.4754478 51.2733935 69.0491207 51.2836498 69.6100857 51.4440916 70.1024236 51.7387254 70.02561 51.3941103 69.8498135 51.0794346 69.596628 50.8333513 69.596628 50.8333513 70.2389884 50.9058487 70.3266596 51.8786622 70.3266596 51.8786622 71.0297155 52.35411 71.0752371 52.4856169 71.0752371 52.4856169 71.1241307 51.5128034 70.8425711 50.9328244 70.8425711 50.9328244 71.4630137 51.4301901 71.2303477 52.6575873L71.8086407 53.3218655C71.8086407 53.3218655 71.9401475 52.0371448 71.7293994 51.5026875 71.7293994 51.5026875 72.2824025 52.1079562 71.9418335 53.50058L72.4088514 54.2272396C72.4088514 54.2272396 72.6077977 53.1296632 72.5015806 52.4839309 72.5015806 52.4839309 72.8927292 53.158325 72.5353003 54.4413597L72.7915701 54.9640152C72.7915701 54.9640152 72.9213909 54.1598002 72.9382508 53.9254483 72.9551106 53.6910963 73.0191781 53.6759224 73.0191781 53.6759224 73.1206696 54.1788676 73.0803934 54.7001228 72.9028451 55.1815073 72.9028451 55.1815073 73.3563751 56.2942575 73.4305585 56.2723397z"/>
      <ellipse cx="93.033" cy="139.311" fill="#009CE3" fill-rule="nonzero" opacity=".1" rx="4.54" ry="1"/>
      <ellipse cx="9.128" cy="136.716" fill="#009CE3" fill-rule="nonzero" opacity=".1" rx="4.54" ry="1"/>
      <ellipse cx="127.471" cy="138.544" fill="#009CE3" fill-rule="nonzero" opacity=".1" rx="4.54" ry="1"/>
    </g>
  </g>
</svg>
